---
http_interactions:
- request:
    method: get
    uri: https://www.googleapis.com/youtube/v3/search?channelId=UCluQ5yInbeAkkeCndNnUhpw&key=AIzaSyCXyAF49Vuzxj4MlOopScBcvajii7NkEF4&part=snippet&q=Deutschland&type=video
    body:
      encoding: US-ASCII
      string: ''
    headers:
      User-Agent:
      - Faraday v2.7.11
      Accept-Encoding:
      - gzip;q=1.0,deflate;q=0.6,identity;q=0.3
      Accept:
      - "*/*"
  response:
    status:
      code: 200
      message: OK
    headers:
      Content-Type:
      - application/json; charset=UTF-8
      Vary:
      - Origin
      - Referer
      - X-Origin
      Date:
      - Wed, 15 Nov 2023 04:58:59 GMT
      Server:
      - scaffolding on HTTPServer2
      Cache-Control:
      - private
      X-Xss-Protection:
      - '0'
      X-Frame-Options:
      - SAMEORIGIN
      X-Content-Type-Options:
      - nosniff
      Alt-Svc:
      - h3=":443"; ma=2592000,h3-29=":443"; ma=2592000
      Transfer-Encoding:
      - chunked
    body:
      encoding: ASCII-8BIT
      string: |
        {
          "kind": "youtube#searchListResponse",
          "etag": "65BD7dPgH4R1FSftZutOaaIiYK8",
          "regionCode": "US",
          "pageInfo": {
            "totalResults": 4,
            "resultsPerPage": 4
          },
          "items": [
            {
              "kind": "youtube#searchResult",
              "etag": "lDQPWkrTS7ju44BdP2D21ob9ZdU",
              "id": {
                "kind": "youtube#video",
                "videoId": "7sxora2imC0"
              },
              "snippet": {
                "publishedAt": "2020-08-29T12:59:40Z",
                "channelId": "UCluQ5yInbeAkkeCndNnUhpw",
                "title": "A Super Quick History of Germany",
                "description": "Sources: A Concise History of Germany (2019) by Mary Fulbrook, Cambridge University Press, Cambridge, UK. The Shortest ...",
                "thumbnails": {
                  "default": {
                    "url": "https://i.ytimg.com/vi/7sxora2imC0/default.jpg",
                    "width": 120,
                    "height": 90
                  },
                  "medium": {
                    "url": "https://i.ytimg.com/vi/7sxora2imC0/mqdefault.jpg",
                    "width": 320,
                    "height": 180
                  },
                  "high": {
                    "url": "https://i.ytimg.com/vi/7sxora2imC0/hqdefault.jpg",
                    "width": 480,
                    "height": 360
                  }
                },
                "channelTitle": "Mr History",
                "liveBroadcastContent": "none",
                "publishTime": "2020-08-29T12:59:40Z"
              }
            },
            {
              "kind": "youtube#searchResult",
              "etag": "KwGGrZrOlladrtNXEgBIIXHl4N4",
              "id": {
                "kind": "youtube#video",
                "videoId": "s31ymVzOfGY"
              },
              "snippet": {
                "publishedAt": "2019-09-24T08:31:33Z",
                "channelId": "UCluQ5yInbeAkkeCndNnUhpw",
                "title": "15 Things Not From the Country You Think",
                "description": "MrHistory.",
                "thumbnails": {
                  "default": {
                    "url": "https://i.ytimg.com/vi/s31ymVzOfGY/default.jpg",
                    "width": 120,
                    "height": 90
                  },
                  "medium": {
                    "url": "https://i.ytimg.com/vi/s31ymVzOfGY/mqdefault.jpg",
                    "width": 320,
                    "height": 180
                  },
                  "high": {
                    "url": "https://i.ytimg.com/vi/s31ymVzOfGY/hqdefault.jpg",
                    "width": 480,
                    "height": 360
                  }
                },
                "channelTitle": "Mr History",
                "liveBroadcastContent": "none",
                "publishTime": "2019-09-24T08:31:33Z"
              }
            },
            {
              "kind": "youtube#searchResult",
              "etag": "aNxu6v7jdYrXy4cQgrJq59NARAk",
              "id": {
                "kind": "youtube#video",
                "videoId": "5cEk732tKFQ"
              },
              "snippet": {
                "publishedAt": "2022-06-22T05:06:21Z",
                "channelId": "UCluQ5yInbeAkkeCndNnUhpw",
                "title": "A Super Quick History of the Netherlands",
                "description": "Sources: \"A Concise History of the Netherlands\" (2017) by James C. Kennedy. Cambridge University Press, UK. \"A Brief History of ...",
                "thumbnails": {
                  "default": {
                    "url": "https://i.ytimg.com/vi/5cEk732tKFQ/default.jpg",
                    "width": 120,
                    "height": 90
                  },
                  "medium": {
                    "url": "https://i.ytimg.com/vi/5cEk732tKFQ/mqdefault.jpg",
                    "width": 320,
                    "height": 180
                  },
                  "high": {
                    "url": "https://i.ytimg.com/vi/5cEk732tKFQ/hqdefault.jpg",
                    "width": 480,
                    "height": 360
                  }
                },
                "channelTitle": "Mr History",
                "liveBroadcastContent": "none",
                "publishTime": "2022-06-22T05:06:21Z"
              }
            },
            {
              "kind": "youtube#searchResult",
              "etag": "BWhpXS5N66Qr4uC4kBP2oZaNsdU",
              "id": {
                "kind": "youtube#video",
                "videoId": "fEvBT95qfJE"
              },
              "snippet": {
                "publishedAt": "2022-10-13T22:52:32Z",
                "channelId": "UCluQ5yInbeAkkeCndNnUhpw",
                "title": "A Super Quick History of Palau",
                "description": "Pictures Requiring Attribution: Madara Skaistkalne: ...",
                "thumbnails": {
                  "default": {
                    "url": "https://i.ytimg.com/vi/fEvBT95qfJE/default.jpg",
                    "width": 120,
                    "height": 90
                  },
                  "medium": {
                    "url": "https://i.ytimg.com/vi/fEvBT95qfJE/mqdefault.jpg",
                    "width": 320,
                    "height": 180
                  },
                  "high": {
                    "url": "https://i.ytimg.com/vi/fEvBT95qfJE/hqdefault.jpg",
                    "width": 480,
                    "height": 360
                  }
                },
                "channelTitle": "Mr History",
                "liveBroadcastContent": "none",
                "publishTime": "2022-10-13T22:52:32Z"
              }
            }
          ]
        }
  recorded_at: Wed, 15 Nov 2023 04:58:59 GMT
- request:
    method: get
    uri: https://api.flickr.com/services/rest?api_key=2e923d9bc7130fcd82ba417808f3748d&format=json&media=photos&method=flickr.photos.search&nojsoncallback=1&per_page=10&query=Deutschland
    body:
      encoding: US-ASCII
      string: ''
    headers:
      User-Agent:
      - Faraday v2.7.11
      Accept-Encoding:
      - gzip;q=1.0,deflate;q=0.6,identity;q=0.3
      Accept:
      - "*/*"
  response:
    status:
      code: 200
      message: OK
    headers:
      Content-Type:
      - application/json
      Transfer-Encoding:
      - chunked
      Connection:
      - keep-alive
      Vary:
      - Accept-Encoding
      Date:
      - Wed, 15 Nov 2023 04:58:59 GMT
      Server:
      - Apache/2.4.58 (Ubuntu)
      Set-Cookie:
      - ccc=%7B%22needsConsent%22%3Afalse%2C%22managed%22%3A0%2C%22changed%22%3A0%2C%22info%22%3A%7B%22cookieBlock%22%3A%7B%22level%22%3A0%2C%22blockRan%22%3A0%7D%7D%7D;
        expires=Fri, 15-Dec-2023 04:58:59 GMT; Max-Age=2592000; path=/; domain=.flickr.com
      X-Content-Type-Options:
      - nosniff
      X-Frame-Options:
      - SAMEORIGIN
      X-Cache:
      - Miss from cloudfront
      Via:
      - 1.1 bd4f4d1bef385660bac721c448d703c8.cloudfront.net (CloudFront)
      X-Amz-Cf-Pop:
      - DFW57-P3
      X-Amz-Cf-Id:
      - GSs-68Ewcp73l0qEsuFoKmy3zB14uyFO5xsFoodpALngc7sCTjKf2g==
    body:
      encoding: ASCII-8BIT
      string: '{"photos":{"page":1,"pages":45073,"perpage":10,"total":450730,"photo":[{"id":"53333304868","owner":"8975320@N08","secret":"f1d1349d90","server":"65535","farm":66,"title":"Nov
        13 starter group coloring ycr more came later","ispublic":1,"isfriend":0,"isfamily":0},{"id":"53333077101","owner":"116488457@N08","secret":"e6f67fcf5f","server":"65535","farm":66,"title":"IMG_8016","ispublic":1,"isfriend":0,"isfamily":0},{"id":"53333304808","owner":"142216132@N07","secret":"95cbcce43d","server":"65535","farm":66,"title":"Hugo
        & Joslyn Wedding  September 23, 2023","ispublic":1,"isfriend":0,"isfamily":0},{"id":"53333077026","owner":"24430216@N08","secret":"d1a8142f39","server":"65535","farm":66,"title":"IMG_20230205_094321-01","ispublic":1,"isfriend":0,"isfamily":0},{"id":"53333304803","owner":"24430216@N08","secret":"53c189f009","server":"65535","farm":66,"title":"IMG_20230205_101926-01","ispublic":1,"isfriend":0,"isfamily":0},{"id":"53333076941","owner":"193240292@N08","secret":"0c1957f3a8","server":"65535","farm":66,"title":"IMG_5122.jpg","ispublic":1,"isfriend":0,"isfamily":0},{"id":"53333304718","owner":"193697485@N06","secret":"0550a5ec83","server":"65535","farm":66,"title":"K1M22560","ispublic":1,"isfriend":0,"isfamily":0},{"id":"53333076866","owner":"142216132@N07","secret":"e0913a0797","server":"65535","farm":66,"title":"Hugo
        & Joslyn Wedding  September 23, 2023","ispublic":1,"isfriend":0,"isfamily":0},{"id":"53333304593","owner":"197722009@N08","secret":"a7164ce470","server":"65535","farm":66,"title":"best
        fertility centers in hyderabad","ispublic":1,"isfriend":0,"isfamily":0},{"id":"53332198417","owner":"90130373@N06","secret":"2baa13dc8f","server":"65535","farm":66,"title":"exefile_2023-11-14_23-58-25","ispublic":1,"isfriend":0,"isfamily":0}]},"stat":"ok"}'
  recorded_at: Wed, 15 Nov 2023 04:58:59 GMT
recorded_with: VCR 6.2.0
