---
http_interactions:
- request:
    method: get
    uri: https://www.googleapis.com/youtube/v3/search?channelId=UCluQ5yInbeAkkeCndNnUhpw&key=AIzaSyCXyAF49Vuzxj4MlOopScBcvajii7NkEF4&part=snippet&q=Camorr&type=video
    body:
      encoding: US-ASCII
      string: ''
    headers:
      User-Agent:
      - Faraday v2.7.11
      Accept-Encoding:
      - gzip;q=1.0,deflate;q=0.6,identity;q=0.3
      Accept:
      - "*/*"
  response:
    status:
      code: 200
      message: OK
    headers:
      Content-Type:
      - application/json; charset=UTF-8
      Vary:
      - Origin
      - Referer
      - X-Origin
      Date:
      - Wed, 15 Nov 2023 04:58:59 GMT
      Server:
      - scaffolding on HTTPServer2
      Cache-Control:
      - private
      X-Xss-Protection:
      - '0'
      X-Frame-Options:
      - SAMEORIGIN
      X-Content-Type-Options:
      - nosniff
      Alt-Svc:
      - h3=":443"; ma=2592000,h3-29=":443"; ma=2592000
      Transfer-Encoding:
      - chunked
    body:
      encoding: ASCII-8BIT
      string: |
        {
          "kind": "youtube#searchListResponse",
          "etag": "UBAOiXjvY0CZ7Ub9tJDO9bUtsU8",
          "regionCode": "US",
          "pageInfo": {
            "totalResults": 0,
            "resultsPerPage": 0
          },
          "items": []
        }
  recorded_at: Wed, 15 Nov 2023 04:58:59 GMT
- request:
    method: get
    uri: https://api.flickr.com/services/rest?api_key=2e923d9bc7130fcd82ba417808f3748d&format=json&media=photos&method=flickr.photos.search&nojsoncallback=1&per_page=10&query=Camorr
    body:
      encoding: US-ASCII
      string: ''
    headers:
      User-Agent:
      - Faraday v2.7.11
      Accept-Encoding:
      - gzip;q=1.0,deflate;q=0.6,identity;q=0.3
      Accept:
      - "*/*"
  response:
    status:
      code: 200
      message: OK
    headers:
      Content-Type:
      - application/json
      Content-Length:
      - '1777'
      Connection:
      - keep-alive
      Date:
      - Wed, 15 Nov 2023 04:58:59 GMT
      Server:
      - Apache/2.4.58 (Ubuntu)
      Set-Cookie:
      - ccc=%7B%22needsConsent%22%3Afalse%2C%22managed%22%3A0%2C%22changed%22%3A0%2C%22info%22%3A%7B%22cookieBlock%22%3A%7B%22level%22%3A0%2C%22blockRan%22%3A0%7D%7D%7D;
        expires=Fri, 15-Dec-2023 04:58:59 GMT; Max-Age=2592000; path=/; domain=.flickr.com
      X-Content-Type-Options:
      - nosniff
      X-Frame-Options:
      - SAMEORIGIN
      X-Cache:
      - Miss from cloudfront
      Via:
      - 1.1 275acd50d47077179cfdc4fe76b02506.cloudfront.net (CloudFront)
      X-Amz-Cf-Pop:
      - DFW57-P3
      X-Amz-Cf-Id:
      - 9vqLP50iYXUePcCxrrUJ-9AHf4Zy8mbJsX8PvDFuaVZctPvAg4U-XA==
    body:
      encoding: UTF-8
      string: '{"photos":{"page":1,"pages":46064,"perpage":10,"total":460637,"photo":[{"id":"53333304868","owner":"8975320@N08","secret":"f1d1349d90","server":"65535","farm":66,"title":"Nov
        13 starter group coloring ycr more came later","ispublic":1,"isfriend":0,"isfamily":0},{"id":"53333304808","owner":"142216132@N07","secret":"95cbcce43d","server":"65535","farm":66,"title":"Hugo
        & Joslyn Wedding  September 23, 2023","ispublic":1,"isfriend":0,"isfamily":0},{"id":"53333077026","owner":"24430216@N08","secret":"d1a8142f39","server":"65535","farm":66,"title":"IMG_20230205_094321-01","ispublic":1,"isfriend":0,"isfamily":0},{"id":"53333304803","owner":"24430216@N08","secret":"53c189f009","server":"65535","farm":66,"title":"IMG_20230205_101926-01","ispublic":1,"isfriend":0,"isfamily":0},{"id":"53333076961","owner":"199537098@N04","secret":"d55b533e39","server":"65535","farm":66,"title":"","ispublic":1,"isfriend":0,"isfamily":0},{"id":"53333076941","owner":"193240292@N08","secret":"0c1957f3a8","server":"65535","farm":66,"title":"IMG_5122.jpg","ispublic":1,"isfriend":0,"isfamily":0},{"id":"53333304718","owner":"193697485@N06","secret":"0550a5ec83","server":"65535","farm":66,"title":"K1M22560","ispublic":1,"isfriend":0,"isfamily":0},{"id":"53333076866","owner":"142216132@N07","secret":"e0913a0797","server":"65535","farm":66,"title":"Hugo
        & Joslyn Wedding  September 23, 2023","ispublic":1,"isfriend":0,"isfamily":0},{"id":"53333304593","owner":"197722009@N08","secret":"a7164ce470","server":"65535","farm":66,"title":"best
        fertility centers in hyderabad","ispublic":1,"isfriend":0,"isfamily":0},{"id":"53332198417","owner":"90130373@N06","secret":"2baa13dc8f","server":"65535","farm":66,"title":"exefile_2023-11-14_23-58-25","ispublic":1,"isfriend":0,"isfamily":0}]},"stat":"ok"}'
  recorded_at: Wed, 15 Nov 2023 04:58:59 GMT
recorded_with: VCR 6.2.0
